{
  "type": "object",
  "required": [
    "sha",
    "created_at",
    "iid",
    "tag",
    "last?",
    "ref",
    "id"
  ],
  "properties": {
    "created_at": { "type": "string" },
    "id": { "type": "integer" },
    "iid": { "type": "integer" },
    "last?": { "type": "boolean" },
    "ref": {
      "type": "object",
      "required": [
        "name"
      ],
      "properties": {
        "name": { "type": "string" }
      },
      "additionalProperties": false
    },
    "sha": { "type": "string" },
    "tag": { "type": "boolean" }
  },
  "additionalProperties": false
}
